Using mapping: RGB-123 v2 from rgb-123-v2

Beaglebone:
                       Internal Channel Index
 Row  Pin#           P9            Pin#  |  Pin#           P8            Pin# Row
  1    1                            2    |   1                            2    1
  2    3                            4    |   3                            4    2
  3    5                            6    |   5                            6    3
  4    7                            8    |   7       24           7       8    4
  5    9                            10   |   9       25           6       10   5
  6    11      40          41       12   |   11      26           5       12   6
  7    13      42          43       14   |   13      27           4       14   7
  8    15      44          45       16   |   15      28           3       16   8
  9    17                           18   |   17      29           2       18   9
  10   19                           20   |   19      30                   20   10
  11   21      46          47       22   |   21                           22   11
  12   23      32                   24   |   23                           24   12
  13   25                  33       26   |   25                           26   13
  14   27                  34       28   |   27      31                   28   14
  15   29      35          36       30   |   29      16           1       30   15
  16   31      37                   32   |   31      17           0       32   16
  17   33                           34   |   33      18          15       34   17
  18   35                           36   |   35      19          14       36   18
  19   37                           38   |   37      20          13       38   19
  20   39                           40   |   39      21          12       40   20
  21   41      38          39       42   |   41      22          11       42   21
  22   43                           44   |   43      23          10       44   22
  23   45                           46   |   45       8           9       46   23


RGB-123 Cape:
  Pin#                                            Pin#
   31  CLK1                                        16 CLK0
   30                                              17
   29                                              18
   28                                              19
   27                                              20
   26                                              21 A1S0
   25                                              22 A2S0
   24                                              23 A0S0

   39                                              8  A3S0
   38                                              9  A3S1
   37                                              10 A0S1
   36                                              11 A1S1
   35                                              12 A2S1
   34                                              13
   33                                              14
   32                                              15

   47                                              0
   46                                              1
   45                                              2
   44                                              3
   43                                              4
   42                                              5
   41                                              6
   40                                              7

